{"tracks":{"href":"https://api.spotify.com/v1/search?query=Ace+of+Spades&type=track&offset=0&limit=1","items":[{"album":{"album_type":"album","artists":[{"external_urls":{"spotify":"https://open.spotify.com/artist/1DFr97A9HnbV3SKTJFu62M"},"href":"https://api.spotify.com/v1/artists/1DFr97A9HnbV3SKTJFu62M","id":"1DFr97A9HnbV3SKTJFu62M","name":"Motörhead","type":"artist","uri":"spotify:artist:1DFr97A9HnbV3SKTJFu62M"}],"available_markets":["AD","AR","AT","AU","BE","BG","BO","BR","CA","CH","CL","CO","CR","CY","CZ","DE","DK","DO","EC","EE","ES","FI","FR","GB","GR","GT","HK","HN","HU","ID","IE","IL","IS","IT","JP","LI","LT","LU","LV","MC","MT","MX","MY","NI","NL","NO","NZ","PA","PE","PH","PL","PT","PY","RO","SE","SG","SK","SV","TH","TR","TW","US","UY","VN","ZA"],"external_urls":{"spotify":"https://open.spotify.com/album/3rxF05Aux0QTrN533Kjc91"},"href":"https://api.spotify.com/v1/albums/3rxF05Aux0QTrN533Kjc91","id":"3rxF05Aux0QTrN533Kjc91","images":[{"height":640,"url":"https://i.scdn.co/image/67e99a0f0d520b82a5713d8831b31464d527ce75","width":640},{"height":300,"url":"https://i.scdn.co/image/659252f12e78ce6f5e97fb2cc1172b17b37b9bbc","width":300},{"height":64,"url":"https://i.scdn.co/image/8f878beb36d9eec02e00835823711734b9a5fd04","width":64}],"name":"Ace of Spades (Expanded Edition)","release_date":"1980-11-08","release_date_precision":"day","total_tracks":27,"type":"album","uri":"spotify:album:3rxF05Aux0QTrN533Kjc91"},"artists":[{"external_urls":{"spotify":"https://open.spotify.com/artist/1DFr97A9HnbV3SKTJFu62M"},"href":"https://api.spotify.com/v1/artists/1DFr97A9HnbV3SKTJFu62M","id":"1DFr97A9HnbV3SKTJFu62M","name":"Motörhead","type":"artist","uri":"spotify:artist:1DFr97A9HnbV3SKTJFu62M"}],"available_markets":["AD","AR","AT","AU","BE","BG","BO","BR","CA","CH","CL","CO","CR","CY","CZ","DE","DK","DO","EC","EE","ES","FI","FR","GB","GR","GT","HK","HN","HU","ID","IE","IL","IS","IT","JP","LI","LT","LU","LV","MC","MT","MX","MY","NI","NL","NO","NZ","PA","PE","PH","PL","PT","PY","RO","SE","SG","SK","SV","TH","TR","TW","US","UY","VN","ZA"],"disc_number":1,"duration_ms":165906,"explicit":false,"external_ids":{"isrc":"GBAJE8000033"},"external_urls":{"spotify":"https://open.spotify.com/track/6EPRKhUOdiFSQwGBRBbvsZ"},"href":"https://api.spotify.com/v1/tracks/6EPRKhUOdiFSQwGBRBbvsZ","id":"6EPRKhUOdiFSQwGBRBbvsZ","is_local":false,"name":"Ace of Spades","popularity":74,"preview_url":"https://p.scdn.co/mp3-preview/cf51f8a8f917601f32cd5574b897daa68f53471b?cid=743ac42be6e34b9a9024a65990d4ad81","track_number":1,"type":"track","uri":"spotify:track:6EPRKhUOdiFSQwGBRBbvsZ"}],"limit":1,"next":"https://api.spotify.com/v1/search?query=Ace+of+Spades&type=track&offset=1&limit=1","offset":0,"previous":null,"total":1036}}